%YAML 1.1
%TAG !u! tag:unity3d.com,2011:
--- !u!29 &1
OcclusionCullingSettings:
  m_ObjectHideFlags: 0
  serializedVersion: 2
  m_OcclusionBakeSettings:
    smallestOccluder: 5
    smallestHole: 0.25
    backfaceThreshold: 100
  m_SceneGUID: 00000000000000000000000000000000
  m_OcclusionCullingData: {fileID: 0}
--- !u!104 &2
RenderSettings:
  m_ObjectHideFlags: 0
  serializedVersion: 8
  m_Fog: 0
  m_FogColor: {r: 0.5, g: 0.5, b: 0.5, a: 1}
  m_FogMode: 3
  m_FogDensity: 0.01
  m_LinearFogStart: 0
  m_LinearFogEnd: 300
  m_AmbientSkyColor: {r: 0.212, g: 0.227, b: 0.259, a: 1}
  m_AmbientEquatorColor: {r: 0.114, g: 0.125, b: 0.133, a: 1}
  m_AmbientGroundColor: {r: 0.047, g: 0.043, b: 0.035, a: 1}
  m_AmbientIntensity: 1
  m_AmbientMode: 0
  m_SubtractiveShadowColor: {r: 0.42, g: 0.478, b: 0.627, a: 1}
  m_SkyboxMaterial: {fileID: 10304, guid: 0000000000000000f000000000000000, type: 0}
  m_HaloStrength: 0.5
  m_FlareStrength: 1
  m_FlareFadeSpeed: 3
  m_HaloTexture: {fileID: 0}
  m_SpotCookie: {fileID: 10001, guid: 0000000000000000e000000000000000, type: 0}
  m_DefaultReflectionMode: 0
  m_DefaultReflectionResolution: 128
  m_ReflectionBounces: 1
  m_ReflectionIntensity: 1
  m_CustomReflection: {fileID: 0}
  m_Sun: {fileID: 0}
  m_IndirectSpecularColor: {r: 0.44657898, g: 0.4964133, b: 0.5748178, a: 1}
--- !u!157 &3
LightmapSettings:
  m_ObjectHideFlags: 0
  serializedVersion: 11
  m_GIWorkflowMode: 0
  m_GISettings:
    serializedVersion: 2
    m_BounceScale: 1
    m_IndirectOutputScale: 1
    m_AlbedoBoost: 1
    m_TemporalCoherenceThreshold: 1
    m_EnvironmentLightingMode: 0
    m_EnableBakedLightmaps: 1
    m_EnableRealtimeLightmaps: 1
  m_LightmapEditorSettings:
    serializedVersion: 9
    m_Resolution: 2
    m_BakeResolution: 40
    m_TextureWidth: 1024
    m_TextureHeight: 1024
    m_AO: 0
    m_AOMaxDistance: 1
    m_CompAOExponent: 1
    m_CompAOExponentDirect: 0
    m_Padding: 2
    m_LightmapParameters: {fileID: 0}
    m_LightmapsBakeMode: 1
    m_TextureCompression: 1
    m_FinalGather: 0
    m_FinalGatherFiltering: 1
    m_FinalGatherRayCount: 256
    m_ReflectionCompression: 2
    m_MixedBakeMode: 2
    m_BakeBackend: 0
    m_PVRSampling: 1
    m_PVRDirectSampleCount: 32
    m_PVRSampleCount: 500
    m_PVRBounces: 2
    m_PVRFilterTypeDirect: 0
    m_PVRFilterTypeIndirect: 0
    m_PVRFilterTypeAO: 0
    m_PVRFilteringMode: 1
    m_PVRCulling: 1
    m_PVRFilteringGaussRadiusDirect: 1
    m_PVRFilteringGaussRadiusIndirect: 5
    m_PVRFilteringGaussRadiusAO: 2
    m_PVRFilteringAtrousPositionSigmaDirect: 0.5
    m_PVRFilteringAtrousPositionSigmaIndirect: 2
    m_PVRFilteringAtrousPositionSigmaAO: 1
    m_ShowResolutionOverlay: 1
  m_LightingDataAsset: {fileID: 0}
  m_UseShadowmask: 1
--- !u!196 &4
NavMeshSettings:
  serializedVersion: 2
  m_ObjectHideFlags: 0
  m_BuildSettings:
    serializedVersion: 2
    agentTypeID: 0
    agentRadius: 0.5
    agentHeight: 2
    agentSlope: 45
    agentClimb: 0.4
    ledgeDropHeight: 0
    maxJumpAcrossDistance: 0
    minRegionArea: 2
    manualCellSize: 0
    cellSize: 0.16666667
    manualTileSize: 0
    tileSize: 256
    accuratePlacement: 0
    debug:
      m_Flags: 0
  m_NavMeshData: {fileID: 0}
--- !u!114 &116493482 stripped
MonoBehaviour:
  m_PrefabParentObject: {fileID: 114834242490242574, guid: 905b59d799405a640aac8a4d7cdcd407,
    type: 2}
  m_PrefabInternal: {fileID: 1631612857}
  m_Script: {fileID: 11500000, guid: a6baebb5aa0e61f47af56fb766f03419, type: 3}
--- !u!1 &350994880
GameObject:
  m_ObjectHideFlags: 0
  m_PrefabParentObject: {fileID: 0}
  m_PrefabInternal: {fileID: 0}
  serializedVersion: 5
  m_Component:
  - component: {fileID: 350994883}
  - component: {fileID: 350994882}
  - component: {fileID: 350994881}
  m_Layer: 0
  m_Name: EventSystem
  m_TagString: Untagged
  m_Icon: {fileID: 0}
  m_NavMeshLayer: 0
  m_StaticEditorFlags: 0
  m_IsActive: 1
--- !u!114 &350994881
MonoBehaviour:
  m_ObjectHideFlags: 0
  m_PrefabParentObject: {fileID: 0}
  m_PrefabInternal: {fileID: 0}
  m_GameObject: {fileID: 350994880}
  m_Enabled: 1
  m_EditorHideFlags: 0
  m_Script: {fileID: 1077351063, guid: f5f67c52d1564df4a8936ccd202a3bd8, type: 3}
  m_Name: 
  m_EditorClassIdentifier: 
  m_HorizontalAxis: Horizontal
  m_VerticalAxis: Vertical
  m_SubmitButton: Submit
  m_CancelButton: Cancel
  m_InputActionsPerSecond: 10
  m_RepeatDelay: 0.5
  m_ForceModuleActive: 0
--- !u!114 &350994882
MonoBehaviour:
  m_ObjectHideFlags: 0
  m_PrefabParentObject: {fileID: 0}
  m_PrefabInternal: {fileID: 0}
  m_GameObject: {fileID: 350994880}
  m_Enabled: 1
  m_EditorHideFlags: 0
  m_Script: {fileID: -619905303, guid: f5f67c52d1564df4a8936ccd202a3bd8, type: 3}
  m_Name: 
  m_EditorClassIdentifier: 
  m_FirstSelected: {fileID: 0}
  m_sendNavigationEvents: 1
  m_DragThreshold: 5
--- !u!4 &350994883
Transform:
  m_ObjectHideFlags: 0
  m_PrefabParentObject: {fileID: 0}
  m_PrefabInternal: {fileID: 0}
  m_GameObject: {fileID: 350994880}
  m_LocalRotation: {x: 0, y: 0, z: 0, w: 1}
  m_LocalPosition: {x: 0, y: 0, z: 0}
  m_LocalScale: {x: 1, y: 1, z: 1}
  m_Children: []
  m_Father: {fileID: 0}
  m_RootOrder: 3
  m_LocalEulerAnglesHint: {x: 0, y: 0, z: 0}
--- !u!1001 &1130307434
Prefab:
  m_ObjectHideFlags: 0
  serializedVersion: 2
  m_Modification:
    m_TransformParent: {fileID: 2069787905}
    m_Modifications:
    - target: {fileID: 224747132185675518, guid: 3917e51e9b9e31e4eb6cc1a124b4868a,
        type: 2}
      propertyPath: m_LocalPosition.x
      value: 0
      objectReference: {fileID: 0}
    - target: {fileID: 224747132185675518, guid: 3917e51e9b9e31e4eb6cc1a124b4868a,
        type: 2}
      propertyPath: m_LocalPosition.y
      value: 0
      objectReference: {fileID: 0}
    - target: {fileID: 224747132185675518, guid: 3917e51e9b9e31e4eb6cc1a124b4868a,
        type: 2}
      propertyPath: m_LocalPosition.z
      value: 0
      objectReference: {fileID: 0}
    - target: {fileID: 224747132185675518, guid: 3917e51e9b9e31e4eb6cc1a124b4868a,
        type: 2}
      propertyPath: m_LocalRotation.x
      value: 0
      objectReference: {fileID: 0}
    - target: {fileID: 224747132185675518, guid: 3917e51e9b9e31e4eb6cc1a124b4868a,
        type: 2}
      propertyPath: m_LocalRotation.y
      value: 0
      objectReference: {fileID: 0}
    - target: {fileID: 224747132185675518, guid: 3917e51e9b9e31e4eb6cc1a124b4868a,
        type: 2}
      propertyPath: m_LocalRotation.z
      value: 0
      objectReference: {fileID: 0}
    - target: {fileID: 224747132185675518, guid: 3917e51e9b9e31e4eb6cc1a124b4868a,
        type: 2}
      propertyPath: m_LocalRotation.w
      value: 1
      objectReference: {fileID: 0}
    - target: {fileID: 224747132185675518, guid: 3917e51e9b9e31e4eb6cc1a124b4868a,
        type: 2}
      propertyPath: m_RootOrder
      value: 4
      objectReference: {fileID: 0}
    - target: {fileID: 224747132185675518, guid: 3917e51e9b9e31e4eb6cc1a124b4868a,
        type: 2}
      propertyPath: m_AnchoredPosition.x
      value: 0
      objectReference: {fileID: 0}
    - target: {fileID: 224747132185675518, guid: 3917e51e9b9e31e4eb6cc1a124b4868a,
        type: 2}
      propertyPath: m_AnchoredPosition.y
      value: 0
      objectReference: {fileID: 0}
    - target: {fileID: 224747132185675518, guid: 3917e51e9b9e31e4eb6cc1a124b4868a,
        type: 2}
      propertyPath: m_SizeDelta.x
      value: 0
      objectReference: {fileID: 0}
    - target: {fileID: 224747132185675518, guid: 3917e51e9b9e31e4eb6cc1a124b4868a,
        type: 2}
      propertyPath: m_SizeDelta.y
      value: 0
      objectReference: {fileID: 0}
    - target: {fileID: 224747132185675518, guid: 3917e51e9b9e31e4eb6cc1a124b4868a,
        type: 2}
      propertyPath: m_AnchorMin.x
      value: 0
      objectReference: {fileID: 0}
    - target: {fileID: 224747132185675518, guid: 3917e51e9b9e31e4eb6cc1a124b4868a,
        type: 2}
      propertyPath: m_AnchorMin.y
      value: 0
      objectReference: {fileID: 0}
    - target: {fileID: 224747132185675518, guid: 3917e51e9b9e31e4eb6cc1a124b4868a,
        type: 2}
      propertyPath: m_AnchorMax.x
      value: 1
      objectReference: {fileID: 0}
    - target: {fileID: 224747132185675518, guid: 3917e51e9b9e31e4eb6cc1a124b4868a,
        type: 2}
      propertyPath: m_AnchorMax.y
      value: 1
      objectReference: {fileID: 0}
    - target: {fileID: 224747132185675518, guid: 3917e51e9b9e31e4eb6cc1a124b4868a,
        type: 2}
      propertyPath: m_Pivot.x
      value: 0.5
      objectReference: {fileID: 0}
    - target: {fileID: 224747132185675518, guid: 3917e51e9b9e31e4eb6cc1a124b4868a,
        type: 2}
      propertyPath: m_Pivot.y
      value: 0.5
      objectReference: {fileID: 0}
    m_RemovedComponents: []
  m_ParentPrefab: {fileID: 100100000, guid: 3917e51e9b9e31e4eb6cc1a124b4868a, type: 2}
  m_IsPrefabParent: 0
--- !u!114 &1130307435 stripped
MonoBehaviour:
  m_PrefabParentObject: {fileID: 114779452947277414, guid: 3917e51e9b9e31e4eb6cc1a124b4868a,
    type: 2}
  m_PrefabInternal: {fileID: 1130307434}
  m_Script: {fileID: 11500000, guid: 622d9a81873d71d47a287340ec32409d, type: 3}
--- !u!1 &1231658184
GameObject:
  m_ObjectHideFlags: 0
  m_PrefabParentObject: {fileID: 0}
  m_PrefabInternal: {fileID: 0}
  serializedVersion: 5
  m_Component:
  - component: {fileID: 1231658186}
  - component: {fileID: 1231658185}
  m_Layer: 0
  m_Name: Directional Light
  m_TagString: Untagged
  m_Icon: {fileID: 0}
  m_NavMeshLayer: 0
  m_StaticEditorFlags: 0
  m_IsActive: 1
--- !u!108 &1231658185
Light:
  m_ObjectHideFlags: 0
  m_PrefabParentObject: {fileID: 0}
  m_PrefabInternal: {fileID: 0}
  m_GameObject: {fileID: 1231658184}
  m_Enabled: 1
  serializedVersion: 8
  m_Type: 1
  m_Color: {r: 1, g: 0.95686275, b: 0.8392157, a: 1}
  m_Intensity: 1
  m_Range: 10
  m_SpotAngle: 30
  m_CookieSize: 10
  m_Shadows:
    m_Type: 2
    m_Resolution: -1
    m_CustomResolution: -1
    m_Strength: 1
    m_Bias: 0.05
    m_NormalBias: 0.4
    m_NearPlane: 0.2
  m_Cookie: {fileID: 0}
  m_DrawHalo: 0
  m_Flare: {fileID: 0}
  m_RenderMode: 0
  m_CullingMask:
    serializedVersion: 2
    m_Bits: 4294967295
  m_Lightmapping: 4
  m_AreaSize: {x: 1, y: 1}
  m_BounceIntensity: 1
  m_ColorTemperature: 6570
  m_UseColorTemperature: 0
  m_ShadowRadius: 0
  m_ShadowAngle: 0
--- !u!4 &1231658186
Transform:
  m_ObjectHideFlags: 0
  m_PrefabParentObject: {fileID: 0}
  m_PrefabInternal: {fileID: 0}
  m_GameObject: {fileID: 1231658184}
  m_LocalRotation: {x: 0.40821788, y: -0.23456968, z: 0.10938163, w: 0.8754261}
  m_LocalPosition: {x: 0, y: 3, z: 0}
  m_LocalScale: {x: 1, y: 1, z: 1}
  m_Children: []
  m_Father: {fileID: 0}
  m_RootOrder: 1
  m_LocalEulerAnglesHint: {x: 50, y: -30, z: 0}
--- !u!1001 &1302726990
Prefab:
  m_ObjectHideFlags: 0
  serializedVersion: 2
  m_Modification:
    m_TransformParent: {fileID: 2069787905}
    m_Modifications:
    - target: {fileID: 224862991047345230, guid: 284039b19e2eeb24f92fcf94912c3ec5,
        type: 2}
      propertyPath: m_LocalPosition.x
      value: 0
      objectReference: {fileID: 0}
    - target: {fileID: 224862991047345230, guid: 284039b19e2eeb24f92fcf94912c3ec5,
        type: 2}
      propertyPath: m_LocalPosition.y
      value: 0
      objectReference: {fileID: 0}
    - target: {fileID: 224862991047345230, guid: 284039b19e2eeb24f92fcf94912c3ec5,
        type: 2}
      propertyPath: m_LocalPosition.z
      value: 0
      objectReference: {fileID: 0}
    - target: {fileID: 224862991047345230, guid: 284039b19e2eeb24f92fcf94912c3ec5,
        type: 2}
      propertyPath: m_LocalRotation.x
      value: -0
      objectReference: {fileID: 0}
    - target: {fileID: 224862991047345230, guid: 284039b19e2eeb24f92fcf94912c3ec5,
        type: 2}
      propertyPath: m_LocalRotation.y
      value: -0
      objectReference: {fileID: 0}
    - target: {fileID: 224862991047345230, guid: 284039b19e2eeb24f92fcf94912c3ec5,
        type: 2}
      propertyPath: m_LocalRotation.z
      value: -0
      objectReference: {fileID: 0}
    - target: {fileID: 224862991047345230, guid: 284039b19e2eeb24f92fcf94912c3ec5,
        type: 2}
      propertyPath: m_LocalRotation.w
      value: 1
      objectReference: {fileID: 0}
    - target: {fileID: 224862991047345230, guid: 284039b19e2eeb24f92fcf94912c3ec5,
        type: 2}
      propertyPath: m_RootOrder
      value: 2
      objectReference: {fileID: 0}
    - target: {fileID: 224862991047345230, guid: 284039b19e2eeb24f92fcf94912c3ec5,
        type: 2}
      propertyPath: m_AnchoredPosition.x
      value: 0.000015258789
      objectReference: {fileID: 0}
    - target: {fileID: 224862991047345230, guid: 284039b19e2eeb24f92fcf94912c3ec5,
        type: 2}
      propertyPath: m_AnchoredPosition.y
      value: -0.000030517578
      objectReference: {fileID: 0}
    - target: {fileID: 224862991047345230, guid: 284039b19e2eeb24f92fcf94912c3ec5,
        type: 2}
      propertyPath: m_SizeDelta.x
      value: 0
      objectReference: {fileID: 0}
    - target: {fileID: 224862991047345230, guid: 284039b19e2eeb24f92fcf94912c3ec5,
        type: 2}
      propertyPath: m_SizeDelta.y
      value: 0
      objectReference: {fileID: 0}
    - target: {fileID: 224862991047345230, guid: 284039b19e2eeb24f92fcf94912c3ec5,
        type: 2}
      propertyPath: m_AnchorMin.x
      value: 0
      objectReference: {fileID: 0}
    - target: {fileID: 224862991047345230, guid: 284039b19e2eeb24f92fcf94912c3ec5,
        type: 2}
      propertyPath: m_AnchorMin.y
      value: 0
      objectReference: {fileID: 0}
    - target: {fileID: 224862991047345230, guid: 284039b19e2eeb24f92fcf94912c3ec5,
        type: 2}
      propertyPath: m_AnchorMax.x
      value: 1
      objectReference: {fileID: 0}
    - target: {fileID: 224862991047345230, guid: 284039b19e2eeb24f92fcf94912c3ec5,
        type: 2}
      propertyPath: m_AnchorMax.y
      value: 1
      objectReference: {fileID: 0}
    - target: {fileID: 224862991047345230, guid: 284039b19e2eeb24f92fcf94912c3ec5,
        type: 2}
      propertyPath: m_Pivot.x
      value: 0.5
      objectReference: {fileID: 0}
    - target: {fileID: 224862991047345230, guid: 284039b19e2eeb24f92fcf94912c3ec5,
        type: 2}
      propertyPath: m_Pivot.y
      value: 0.5
      objectReference: {fileID: 0}
    - target: {fileID: 1902340175283512, guid: 284039b19e2eeb24f92fcf94912c3ec5, type: 2}
      propertyPath: m_IsActive
      value: 0
      objectReference: {fileID: 0}
    m_RemovedComponents: []
  m_ParentPrefab: {fileID: 100100000, guid: 284039b19e2eeb24f92fcf94912c3ec5, type: 2}
  m_IsPrefabParent: 0
--- !u!1001 &1508099817
Prefab:
  m_ObjectHideFlags: 0
  serializedVersion: 2
  m_Modification:
    m_TransformParent: {fileID: 2069787905}
    m_Modifications:
    - target: {fileID: 224388549907328482, guid: 40bafcf233308184a9504595812d4acd,
        type: 2}
      propertyPath: m_LocalPosition.x
      value: 0
      objectReference: {fileID: 0}
    - target: {fileID: 224388549907328482, guid: 40bafcf233308184a9504595812d4acd,
        type: 2}
      propertyPath: m_LocalPosition.y
      value: 0
      objectReference: {fileID: 0}
    - target: {fileID: 224388549907328482, guid: 40bafcf233308184a9504595812d4acd,
        type: 2}
      propertyPath: m_LocalPosition.z
      value: 0
      objectReference: {fileID: 0}
    - target: {fileID: 224388549907328482, guid: 40bafcf233308184a9504595812d4acd,
        type: 2}
      propertyPath: m_LocalRotation.x
      value: 0
      objectReference: {fileID: 0}
    - target: {fileID: 224388549907328482, guid: 40bafcf233308184a9504595812d4acd,
        type: 2}
      propertyPath: m_LocalRotation.y
      value: 0
      objectReference: {fileID: 0}
    - target: {fileID: 224388549907328482, guid: 40bafcf233308184a9504595812d4acd,
        type: 2}
      propertyPath: m_LocalRotation.z
      value: 0
      objectReference: {fileID: 0}
    - target: {fileID: 224388549907328482, guid: 40bafcf233308184a9504595812d4acd,
        type: 2}
      propertyPath: m_LocalRotation.w
      value: 1
      objectReference: {fileID: 0}
    - target: {fileID: 224388549907328482, guid: 40bafcf233308184a9504595812d4acd,
        type: 2}
      propertyPath: m_RootOrder
      value: 3
      objectReference: {fileID: 0}
    - target: {fileID: 224388549907328482, guid: 40bafcf233308184a9504595812d4acd,
        type: 2}
      propertyPath: m_AnchoredPosition.x
      value: 0
      objectReference: {fileID: 0}
    - target: {fileID: 224388549907328482, guid: 40bafcf233308184a9504595812d4acd,
        type: 2}
      propertyPath: m_AnchoredPosition.y
      value: 0
      objectReference: {fileID: 0}
    - target: {fileID: 224388549907328482, guid: 40bafcf233308184a9504595812d4acd,
        type: 2}
      propertyPath: m_SizeDelta.x
      value: 0
      objectReference: {fileID: 0}
    - target: {fileID: 224388549907328482, guid: 40bafcf233308184a9504595812d4acd,
        type: 2}
      propertyPath: m_SizeDelta.y
      value: 0
      objectReference: {fileID: 0}
    - target: {fileID: 224388549907328482, guid: 40bafcf233308184a9504595812d4acd,
        type: 2}
      propertyPath: m_AnchorMin.x
      value: 0
      objectReference: {fileID: 0}
    - target: {fileID: 224388549907328482, guid: 40bafcf233308184a9504595812d4acd,
        type: 2}
      propertyPath: m_AnchorMin.y
      value: 0
      objectReference: {fileID: 0}
    - target: {fileID: 224388549907328482, guid: 40bafcf233308184a9504595812d4acd,
        type: 2}
      propertyPath: m_AnchorMax.x
      value: 1
      objectReference: {fileID: 0}
    - target: {fileID: 224388549907328482, guid: 40bafcf233308184a9504595812d4acd,
        type: 2}
      propertyPath: m_AnchorMax.y
      value: 1
      objectReference: {fileID: 0}
    - target: {fileID: 224388549907328482, guid: 40bafcf233308184a9504595812d4acd,
        type: 2}
      propertyPath: m_Pivot.x
      value: 0.5
      objectReference: {fileID: 0}
    - target: {fileID: 224388549907328482, guid: 40bafcf233308184a9504595812d4acd,
        type: 2}
      propertyPath: m_Pivot.y
      value: 0.5
      objectReference: {fileID: 0}
    - target: {fileID: 1467064495145898, guid: 40bafcf233308184a9504595812d4acd, type: 2}
      propertyPath: m_IsActive
      value: 0
      objectReference: {fileID: 0}
    - target: {fileID: 114717910676751280, guid: 40bafcf233308184a9504595812d4acd,
        type: 2}
      propertyPath: m_Enabled
      value: 0
      objectReference: {fileID: 0}
    - target: {fileID: 114100095405519638, guid: 40bafcf233308184a9504595812d4acd,
        type: 2}
      propertyPath: m_FontData.m_Font
      value: 
      objectReference: {fileID: 12800000, guid: f4bb21a2c1609c44ca60c917592d37c4,
        type: 3}
    - target: {fileID: 114100449970587382, guid: 40bafcf233308184a9504595812d4acd,
        type: 2}
      propertyPath: m_FontData.m_Font
      value: 
      objectReference: {fileID: 12800000, guid: f4bb21a2c1609c44ca60c917592d37c4,
        type: 3}
    - target: {fileID: 114556388266083574, guid: 40bafcf233308184a9504595812d4acd,
        type: 2}
      propertyPath: m_FontData.m_Font
      value: 
      objectReference: {fileID: 12800000, guid: f4bb21a2c1609c44ca60c917592d37c4,
        type: 3}
    - target: {fileID: 114911771259035472, guid: 40bafcf233308184a9504595812d4acd,
        type: 2}
      propertyPath: m_FontData.m_Font
      value: 
      objectReference: {fileID: 12800000, guid: f4bb21a2c1609c44ca60c917592d37c4,
        type: 3}
    - target: {fileID: 114069846041596630, guid: 40bafcf233308184a9504595812d4acd,
        type: 2}
      propertyPath: m_FontData.m_Font
      value: 
      objectReference: {fileID: 12800000, guid: f4bb21a2c1609c44ca60c917592d37c4,
        type: 3}
    - target: {fileID: 114664183829807448, guid: 40bafcf233308184a9504595812d4acd,
        type: 2}
      propertyPath: m_FontData.m_Font
      value: 
      objectReference: {fileID: 12800000, guid: f4bb21a2c1609c44ca60c917592d37c4,
        type: 3}
    - target: {fileID: 114638233255560912, guid: 40bafcf233308184a9504595812d4acd,
        type: 2}
      propertyPath: m_FontData.m_Font
      value: 
      objectReference: {fileID: 12800000, guid: f4bb21a2c1609c44ca60c917592d37c4,
        type: 3}
    - target: {fileID: 114604153454774770, guid: 40bafcf233308184a9504595812d4acd,
        type: 2}
      propertyPath: m_FontData.m_Font
      value: 
      objectReference: {fileID: 12800000, guid: f4bb21a2c1609c44ca60c917592d37c4,
        type: 3}
    - target: {fileID: 114782982118860034, guid: 40bafcf233308184a9504595812d4acd,
        type: 2}
      propertyPath: m_FontData.m_Font
      value: 
      objectReference: {fileID: 12800000, guid: f4bb21a2c1609c44ca60c917592d37c4,
        type: 3}
    m_RemovedComponents: []
  m_ParentPrefab: {fileID: 100100000, guid: 40bafcf233308184a9504595812d4acd, type: 2}
  m_IsPrefabParent: 0
--- !u!224 &1515010430 stripped
RectTransform:
  m_PrefabParentObject: {fileID: 224747132185675518, guid: 3917e51e9b9e31e4eb6cc1a124b4868a,
    type: 2}
  m_PrefabInternal: {fileID: 1130307434}
--- !u!1001 &1631612857
Prefab:
  m_ObjectHideFlags: 0
  serializedVersion: 2
  m_Modification:
    m_TransformParent: {fileID: 2069787905}
    m_Modifications:
    - target: {fileID: 224116203802955834, guid: 905b59d799405a640aac8a4d7cdcd407,
        type: 2}
      propertyPath: m_LocalPosition.x
      value: 0
      objectReference: {fileID: 0}
    - target: {fileID: 224116203802955834, guid: 905b59d799405a640aac8a4d7cdcd407,
        type: 2}
      propertyPath: m_LocalPosition.y
      value: 0
      objectReference: {fileID: 0}
    - target: {fileID: 224116203802955834, guid: 905b59d799405a640aac8a4d7cdcd407,
        type: 2}
      propertyPath: m_LocalPosition.z
      value: 0
      objectReference: {fileID: 0}
    - target: {fileID: 224116203802955834, guid: 905b59d799405a640aac8a4d7cdcd407,
        type: 2}
      propertyPath: m_LocalRotation.x
      value: 0
      objectReference: {fileID: 0}
    - target: {fileID: 224116203802955834, guid: 905b59d799405a640aac8a4d7cdcd407,
        type: 2}
      propertyPath: m_LocalRotation.y
      value: 0
      objectReference: {fileID: 0}
    - target: {fileID: 224116203802955834, guid: 905b59d799405a640aac8a4d7cdcd407,
        type: 2}
      propertyPath: m_LocalRotation.z
      value: 0
      objectReference: {fileID: 0}
    - target: {fileID: 224116203802955834, guid: 905b59d799405a640aac8a4d7cdcd407,
        type: 2}
      propertyPath: m_LocalRotation.w
      value: 1
      objectReference: {fileID: 0}
    - target: {fileID: 224116203802955834, guid: 905b59d799405a640aac8a4d7cdcd407,
        type: 2}
      propertyPath: m_RootOrder
      value: 1
      objectReference: {fileID: 0}
    - target: {fileID: 224116203802955834, guid: 905b59d799405a640aac8a4d7cdcd407,
        type: 2}
      propertyPath: m_AnchoredPosition.x
      value: 0
      objectReference: {fileID: 0}
    - target: {fileID: 224116203802955834, guid: 905b59d799405a640aac8a4d7cdcd407,
        type: 2}
      propertyPath: m_AnchoredPosition.y
      value: 0
      objectReference: {fileID: 0}
    - target: {fileID: 224116203802955834, guid: 905b59d799405a640aac8a4d7cdcd407,
        type: 2}
      propertyPath: m_SizeDelta.x
      value: 0
      objectReference: {fileID: 0}
    - target: {fileID: 224116203802955834, guid: 905b59d799405a640aac8a4d7cdcd407,
        type: 2}
      propertyPath: m_SizeDelta.y
      value: 0
      objectReference: {fileID: 0}
    - target: {fileID: 224116203802955834, guid: 905b59d799405a640aac8a4d7cdcd407,
        type: 2}
      propertyPath: m_AnchorMin.x
      value: 0
      objectReference: {fileID: 0}
    - target: {fileID: 224116203802955834, guid: 905b59d799405a640aac8a4d7cdcd407,
        type: 2}
      propertyPath: m_AnchorMin.y
      value: 0
      objectReference: {fileID: 0}
    - target: {fileID: 224116203802955834, guid: 905b59d799405a640aac8a4d7cdcd407,
        type: 2}
      propertyPath: m_AnchorMax.x
      value: 1
      objectReference: {fileID: 0}
    - target: {fileID: 224116203802955834, guid: 905b59d799405a640aac8a4d7cdcd407,
        type: 2}
      propertyPath: m_AnchorMax.y
      value: 1
      objectReference: {fileID: 0}
    - target: {fileID: 224116203802955834, guid: 905b59d799405a640aac8a4d7cdcd407,
        type: 2}
      propertyPath: m_Pivot.x
      value: 0.5
      objectReference: {fileID: 0}
    - target: {fileID: 224116203802955834, guid: 905b59d799405a640aac8a4d7cdcd407,
        type: 2}
      propertyPath: m_Pivot.y
      value: 0.5
      objectReference: {fileID: 0}
    - target: {fileID: 114834242490242574, guid: 905b59d799405a640aac8a4d7cdcd407,
        type: 2}
      propertyPath: panelManager
      value: 
      objectReference: {fileID: 2069787906}
    - target: {fileID: 1541858165003322, guid: 905b59d799405a640aac8a4d7cdcd407, type: 2}
      propertyPath: m_IsActive
      value: 0
      objectReference: {fileID: 0}
    m_RemovedComponents: []
  m_ParentPrefab: {fileID: 100100000, guid: 905b59d799405a640aac8a4d7cdcd407, type: 2}
  m_IsPrefabParent: 0
--- !u!1001 &1640496108
Prefab:
  m_ObjectHideFlags: 0
  serializedVersion: 2
  m_Modification:
    m_TransformParent: {fileID: 2069787905}
    m_Modifications:
    - target: {fileID: 224252419326806414, guid: 01875e3814b67884c9c4caad5534db02,
        type: 2}
      propertyPath: m_LocalPosition.x
      value: 0
      objectReference: {fileID: 0}
    - target: {fileID: 224252419326806414, guid: 01875e3814b67884c9c4caad5534db02,
        type: 2}
      propertyPath: m_LocalPosition.y
      value: 0
      objectReference: {fileID: 0}
    - target: {fileID: 224252419326806414, guid: 01875e3814b67884c9c4caad5534db02,
        type: 2}
      propertyPath: m_LocalPosition.z
      value: 0
      objectReference: {fileID: 0}
    - target: {fileID: 224252419326806414, guid: 01875e3814b67884c9c4caad5534db02,
        type: 2}
      propertyPath: m_LocalRotation.x
      value: 0
      objectReference: {fileID: 0}
    - target: {fileID: 224252419326806414, guid: 01875e3814b67884c9c4caad5534db02,
        type: 2}
      propertyPath: m_LocalRotation.y
      value: 0
      objectReference: {fileID: 0}
    - target: {fileID: 224252419326806414, guid: 01875e3814b67884c9c4caad5534db02,
        type: 2}
      propertyPath: m_LocalRotation.z
      value: 0
      objectReference: {fileID: 0}
    - target: {fileID: 224252419326806414, guid: 01875e3814b67884c9c4caad5534db02,
        type: 2}
      propertyPath: m_LocalRotation.w
      value: 1
      objectReference: {fileID: 0}
    - target: {fileID: 224252419326806414, guid: 01875e3814b67884c9c4caad5534db02,
        type: 2}
      propertyPath: m_RootOrder
      value: 0
      objectReference: {fileID: 0}
    - target: {fileID: 224252419326806414, guid: 01875e3814b67884c9c4caad5534db02,
        type: 2}
      propertyPath: m_AnchoredPosition.x
      value: 0
      objectReference: {fileID: 0}
    - target: {fileID: 224252419326806414, guid: 01875e3814b67884c9c4caad5534db02,
        type: 2}
      propertyPath: m_AnchoredPosition.y
      value: 0
      objectReference: {fileID: 0}
    - target: {fileID: 224252419326806414, guid: 01875e3814b67884c9c4caad5534db02,
        type: 2}
      propertyPath: m_SizeDelta.x
      value: 0
      objectReference: {fileID: 0}
    - target: {fileID: 224252419326806414, guid: 01875e3814b67884c9c4caad5534db02,
        type: 2}
      propertyPath: m_SizeDelta.y
      value: 0
      objectReference: {fileID: 0}
    - target: {fileID: 224252419326806414, guid: 01875e3814b67884c9c4caad5534db02,
        type: 2}
      propertyPath: m_AnchorMin.x
      value: 0
      objectReference: {fileID: 0}
    - target: {fileID: 224252419326806414, guid: 01875e3814b67884c9c4caad5534db02,
        type: 2}
      propertyPath: m_AnchorMin.y
      value: 0
      objectReference: {fileID: 0}
    - target: {fileID: 224252419326806414, guid: 01875e3814b67884c9c4caad5534db02,
        type: 2}
      propertyPath: m_AnchorMax.x
      value: 1
      objectReference: {fileID: 0}
    - target: {fileID: 224252419326806414, guid: 01875e3814b67884c9c4caad5534db02,
        type: 2}
      propertyPath: m_AnchorMax.y
      value: 1
      objectReference: {fileID: 0}
    - target: {fileID: 224252419326806414, guid: 01875e3814b67884c9c4caad5534db02,
        type: 2}
      propertyPath: m_Pivot.x
      value: 0.5
      objectReference: {fileID: 0}
    - target: {fileID: 224252419326806414, guid: 01875e3814b67884c9c4caad5534db02,
        type: 2}
      propertyPath: m_Pivot.y
      value: 0.5
      objectReference: {fileID: 0}
    m_RemovedComponents: []
  m_ParentPrefab: {fileID: 100100000, guid: 01875e3814b67884c9c4caad5534db02, type: 2}
  m_IsPrefabParent: 0
--- !u!224 &1640496109 stripped
RectTransform:
  m_PrefabParentObject: {fileID: 224252419326806414, guid: 01875e3814b67884c9c4caad5534db02,
    type: 2}
  m_PrefabInternal: {fileID: 1640496108}
--- !u!224 &1657510299 stripped
RectTransform:
  m_PrefabParentObject: {fileID: 224116203802955834, guid: 905b59d799405a640aac8a4d7cdcd407,
    type: 2}
  m_PrefabInternal: {fileID: 1631612857}
--- !u!224 &1663694227 stripped
RectTransform:
  m_PrefabParentObject: {fileID: 224388549907328482, guid: 40bafcf233308184a9504595812d4acd,
    type: 2}
  m_PrefabInternal: {fileID: 1508099817}
--- !u!114 &1663694230 stripped
MonoBehaviour:
  m_PrefabParentObject: {fileID: 114603110275177132, guid: 40bafcf233308184a9504595812d4acd,
    type: 2}
  m_PrefabInternal: {fileID: 1508099817}
  m_Script: {fileID: 11500000, guid: aea23ed17b289594caf74dac7cee7bdd, type: 3}
--- !u!1 &1786439777
GameObject:
  m_ObjectHideFlags: 0
  m_PrefabParentObject: {fileID: 0}
  m_PrefabInternal: {fileID: 0}
  serializedVersion: 5
  m_Component:
  - component: {fileID: 1786439781}
  - component: {fileID: 1786439780}
  - component: {fileID: 1786439779}
  - component: {fileID: 1786439778}
  m_Layer: 0
  m_Name: Main Camera
  m_TagString: MainCamera
  m_Icon: {fileID: 0}
  m_NavMeshLayer: 0
  m_StaticEditorFlags: 0
  m_IsActive: 1
--- !u!81 &1786439778
AudioListener:
  m_ObjectHideFlags: 0
  m_PrefabParentObject: {fileID: 0}
  m_PrefabInternal: {fileID: 0}
  m_GameObject: {fileID: 1786439777}
  m_Enabled: 1
--- !u!124 &1786439779
Behaviour:
  m_ObjectHideFlags: 0
  m_PrefabParentObject: {fileID: 0}
  m_PrefabInternal: {fileID: 0}
  m_GameObject: {fileID: 1786439777}
  m_Enabled: 1
--- !u!20 &1786439780
Camera:
  m_ObjectHideFlags: 0
  m_PrefabParentObject: {fileID: 0}
  m_PrefabInternal: {fileID: 0}
  m_GameObject: {fileID: 1786439777}
  m_Enabled: 1
  serializedVersion: 2
  m_ClearFlags: 1
  m_BackGroundColor: {r: 0.19215687, g: 0.3019608, b: 0.4745098, a: 0}
  m_NormalizedViewPortRect:
    serializedVersion: 2
    x: 0
    y: 0
    width: 1
    height: 1
  near clip plane: 0.3
  far clip plane: 1000
  field of view: 60
  orthographic: 0
  orthographic size: 5
  m_Depth: -1
  m_CullingMask:
    serializedVersion: 2
    m_Bits: 4294967295
  m_RenderingPath: -1
  m_TargetTexture: {fileID: 0}
  m_TargetDisplay: 0
  m_TargetEye: 3
  m_HDR: 1
  m_AllowMSAA: 1
  m_AllowDynamicResolution: 0
  m_ForceIntoRT: 0
  m_OcclusionCulling: 1
  m_StereoConvergence: 10
  m_StereoSeparation: 0.022
--- !u!4 &1786439781
Transform:
  m_ObjectHideFlags: 0
  m_PrefabParentObject: {fileID: 0}
  m_PrefabInternal: {fileID: 0}
  m_GameObject: {fileID: 1786439777}
  m_LocalRotation: {x: 0, y: 0, z: 0, w: 1}
  m_LocalPosition: {x: 0, y: 1, z: -10}
  m_LocalScale: {x: 1, y: 1, z: 1}
  m_Children: []
  m_Father: {fileID: 0}
  m_RootOrder: 0
  m_LocalEulerAnglesHint: {x: 0, y: 0, z: 0}
--- !u!224 &1968160516 stripped
RectTransform:
  m_PrefabParentObject: {fileID: 224862991047345230, guid: 284039b19e2eeb24f92fcf94912c3ec5,
    type: 2}
  m_PrefabInternal: {fileID: 1302726990}
--- !u!114 &1968160519 stripped
MonoBehaviour:
  m_PrefabParentObject: {fileID: 114399098899485014, guid: 284039b19e2eeb24f92fcf94912c3ec5,
    type: 2}
  m_PrefabInternal: {fileID: 1302726990}
  m_Script: {fileID: 11500000, guid: 16c0942105b790e47a7940e3d692c5c3, type: 3}
--- !u!1 &2030692724
GameObject:
  m_ObjectHideFlags: 0
  m_PrefabParentObject: {fileID: 0}
  m_PrefabInternal: {fileID: 0}
  serializedVersion: 5
  m_Component:
  - component: {fileID: 2030692727}
  - component: {fileID: 2030692726}
  - component: {fileID: 2030692725}
  m_Layer: 0
  m_Name: Client
  m_TagString: Untagged
  m_Icon: {fileID: 0}
  m_NavMeshLayer: 0
  m_StaticEditorFlags: 0
  m_IsActive: 1
--- !u!114 &2030692725
MonoBehaviour:
  m_ObjectHideFlags: 0
  m_PrefabParentObject: {fileID: 0}
  m_PrefabInternal: {fileID: 0}
  m_GameObject: {fileID: 2030692724}
  m_Enabled: 1
  m_EditorHideFlags: 0
  m_Script: {fileID: 11500000, guid: d7575918705abfe459998bf101cff94c, type: 3}
  m_Name: 
  m_EditorClassIdentifier: 
  ServerIpAddress: 192.168.168.13
  ServerPort: 5000
  AutoConnectOnTrouble: 0
  ConnectionId: 0
  LastSenderId: 0
--- !u!114 &2030692726
MonoBehaviour:
  m_ObjectHideFlags: 0
  m_PrefabParentObject: {fileID: 0}
  m_PrefabInternal: {fileID: 0}
  m_GameObject: {fileID: 2030692724}
  m_Enabled: 1
  m_EditorHideFlags: 0
  m_Script: {fileID: 11500000, guid: 7bad89413ab3ed8409d332e9a362ba92, type: 3}
  m_Name: 
  m_EditorClassIdentifier: 
  GameClient: {fileID: 2030692725}
--- !u!4 &2030692727
Transform:
  m_ObjectHideFlags: 0
  m_PrefabParentObject: {fileID: 0}
  m_PrefabInternal: {fileID: 0}
  m_GameObject: {fileID: 2030692724}
  m_LocalRotation: {x: 0, y: 0, z: 0, w: 1}
  m_LocalPosition: {x: 269.41367, y: 407.8114, z: -4.291829}
  m_LocalScale: {x: 1, y: 1, z: 1}
  m_Children: []
  m_Father: {fileID: 0}
  m_RootOrder: 4
  m_LocalEulerAnglesHint: {x: 0, y: 0, z: 0}
--- !u!1001 &2035238644
Prefab:
  m_ObjectHideFlags: 0
  serializedVersion: 2
  m_Modification:
    m_TransformParent: {fileID: 2069787905}
    m_Modifications:
    - target: {fileID: 224156151473202830, guid: 04a52dcf139117c41bccd438a3948559,
        type: 2}
      propertyPath: m_LocalPosition.x
      value: 0
      objectReference: {fileID: 0}
    - target: {fileID: 224156151473202830, guid: 04a52dcf139117c41bccd438a3948559,
        type: 2}
      propertyPath: m_LocalPosition.y
      value: 0
      objectReference: {fileID: 0}
    - target: {fileID: 224156151473202830, guid: 04a52dcf139117c41bccd438a3948559,
        type: 2}
      propertyPath: m_LocalPosition.z
      value: 0
      objectReference: {fileID: 0}
    - target: {fileID: 224156151473202830, guid: 04a52dcf139117c41bccd438a3948559,
        type: 2}
      propertyPath: m_LocalRotation.x
      value: 0
      objectReference: {fileID: 0}
    - target: {fileID: 224156151473202830, guid: 04a52dcf139117c41bccd438a3948559,
        type: 2}
      propertyPath: m_LocalRotation.y
      value: 0
      objectReference: {fileID: 0}
    - target: {fileID: 224156151473202830, guid: 04a52dcf139117c41bccd438a3948559,
        type: 2}
      propertyPath: m_LocalRotation.z
      value: 0
      objectReference: {fileID: 0}
    - target: {fileID: 224156151473202830, guid: 04a52dcf139117c41bccd438a3948559,
        type: 2}
      propertyPath: m_LocalRotation.w
      value: 1
      objectReference: {fileID: 0}
    - target: {fileID: 224156151473202830, guid: 04a52dcf139117c41bccd438a3948559,
        type: 2}
      propertyPath: m_RootOrder
      value: 5
      objectReference: {fileID: 0}
    - target: {fileID: 224156151473202830, guid: 04a52dcf139117c41bccd438a3948559,
        type: 2}
      propertyPath: m_AnchoredPosition.x
      value: 0
      objectReference: {fileID: 0}
    - target: {fileID: 224156151473202830, guid: 04a52dcf139117c41bccd438a3948559,
        type: 2}
      propertyPath: m_AnchoredPosition.y
      value: 0
      objectReference: {fileID: 0}
    - target: {fileID: 224156151473202830, guid: 04a52dcf139117c41bccd438a3948559,
        type: 2}
      propertyPath: m_SizeDelta.x
      value: 0
      objectReference: {fileID: 0}
    - target: {fileID: 224156151473202830, guid: 04a52dcf139117c41bccd438a3948559,
        type: 2}
      propertyPath: m_SizeDelta.y
      value: 0
      objectReference: {fileID: 0}
    - target: {fileID: 224156151473202830, guid: 04a52dcf139117c41bccd438a3948559,
        type: 2}
      propertyPath: m_AnchorMin.x
      value: 0
      objectReference: {fileID: 0}
    - target: {fileID: 224156151473202830, guid: 04a52dcf139117c41bccd438a3948559,
        type: 2}
      propertyPath: m_AnchorMin.y
      value: 0
      objectReference: {fileID: 0}
    - target: {fileID: 224156151473202830, guid: 04a52dcf139117c41bccd438a3948559,
        type: 2}
      propertyPath: m_AnchorMax.x
      value: 1
      objectReference: {fileID: 0}
    - target: {fileID: 224156151473202830, guid: 04a52dcf139117c41bccd438a3948559,
        type: 2}
      propertyPath: m_AnchorMax.y
      value: 1
      objectReference: {fileID: 0}
    - target: {fileID: 224156151473202830, guid: 04a52dcf139117c41bccd438a3948559,
        type: 2}
      propertyPath: m_Pivot.x
      value: 0.5
      objectReference: {fileID: 0}
    - target: {fileID: 224156151473202830, guid: 04a52dcf139117c41bccd438a3948559,
        type: 2}
      propertyPath: m_Pivot.y
      value: 0.5
      objectReference: {fileID: 0}
    - target: {fileID: 1593880174005398, guid: 04a52dcf139117c41bccd438a3948559, type: 2}
      propertyPath: m_IsActive
      value: 0
      objectReference: {fileID: 0}
    - target: {fileID: 114067984554322030, guid: 04a52dcf139117c41bccd438a3948559,
        type: 2}
      propertyPath: m_Enabled
      value: 0
      objectReference: {fileID: 0}
    - target: {fileID: 224851833412390988, guid: 04a52dcf139117c41bccd438a3948559,
        type: 2}
      propertyPath: m_AnchoredPosition.y
      value: -100
      objectReference: {fileID: 0}
    - target: {fileID: 224338533724854014, guid: 04a52dcf139117c41bccd438a3948559,
        type: 2}
      propertyPath: m_AnchoredPosition.y
      value: -300
      objectReference: {fileID: 0}
    - target: {fileID: 224804183460808692, guid: 04a52dcf139117c41bccd438a3948559,
        type: 2}
      propertyPath: m_AnchoredPosition.y
      value: -500
      objectReference: {fileID: 0}
    - target: {fileID: 224527727628193868, guid: 04a52dcf139117c41bccd438a3948559,
        type: 2}
      propertyPath: m_AnchoredPosition.y
      value: -700
      objectReference: {fileID: 0}
    - target: {fileID: 224851833412390988, guid: 04a52dcf139117c41bccd438a3948559,
        type: 2}
      propertyPath: m_AnchorMin.y
      value: 1
      objectReference: {fileID: 0}
    - target: {fileID: 224851833412390988, guid: 04a52dcf139117c41bccd438a3948559,
        type: 2}
      propertyPath: m_AnchorMax.y
      value: 1
      objectReference: {fileID: 0}
    - target: {fileID: 224851833412390988, guid: 04a52dcf139117c41bccd438a3948559,
        type: 2}
      propertyPath: m_AnchoredPosition.x
      value: 237
      objectReference: {fileID: 0}
    - target: {fileID: 224851833412390988, guid: 04a52dcf139117c41bccd438a3948559,
        type: 2}
      propertyPath: m_SizeDelta.x
      value: 474
      objectReference: {fileID: 0}
    - target: {fileID: 224338533724854014, guid: 04a52dcf139117c41bccd438a3948559,
        type: 2}
      propertyPath: m_AnchorMin.y
      value: 1
      objectReference: {fileID: 0}
    - target: {fileID: 224338533724854014, guid: 04a52dcf139117c41bccd438a3948559,
        type: 2}
      propertyPath: m_AnchorMax.y
      value: 1
      objectReference: {fileID: 0}
    - target: {fileID: 224338533724854014, guid: 04a52dcf139117c41bccd438a3948559,
        type: 2}
      propertyPath: m_AnchoredPosition.x
      value: 237
      objectReference: {fileID: 0}
    - target: {fileID: 224338533724854014, guid: 04a52dcf139117c41bccd438a3948559,
        type: 2}
      propertyPath: m_SizeDelta.x
      value: 474
      objectReference: {fileID: 0}
    - target: {fileID: 224804183460808692, guid: 04a52dcf139117c41bccd438a3948559,
        type: 2}
      propertyPath: m_AnchorMin.y
      value: 1
      objectReference: {fileID: 0}
    - target: {fileID: 224804183460808692, guid: 04a52dcf139117c41bccd438a3948559,
        type: 2}
      propertyPath: m_AnchorMax.y
      value: 1
      objectReference: {fileID: 0}
    - target: {fileID: 224804183460808692, guid: 04a52dcf139117c41bccd438a3948559,
        type: 2}
      propertyPath: m_AnchoredPosition.x
      value: 237
      objectReference: {fileID: 0}
    - target: {fileID: 224804183460808692, guid: 04a52dcf139117c41bccd438a3948559,
        type: 2}
      propertyPath: m_SizeDelta.x
      value: 474
      objectReference: {fileID: 0}
    - target: {fileID: 224527727628193868, guid: 04a52dcf139117c41bccd438a3948559,
        type: 2}
      propertyPath: m_AnchorMin.y
      value: 1
      objectReference: {fileID: 0}
    - target: {fileID: 224527727628193868, guid: 04a52dcf139117c41bccd438a3948559,
        type: 2}
      propertyPath: m_AnchorMax.y
      value: 1
      objectReference: {fileID: 0}
    - target: {fileID: 224527727628193868, guid: 04a52dcf139117c41bccd438a3948559,
        type: 2}
      propertyPath: m_AnchoredPosition.x
      value: 237
      objectReference: {fileID: 0}
    - target: {fileID: 224527727628193868, guid: 04a52dcf139117c41bccd438a3948559,
        type: 2}
      propertyPath: m_SizeDelta.x
      value: 474
      objectReference: {fileID: 0}
    m_RemovedComponents: []
  m_ParentPrefab: {fileID: 100100000, guid: 04a52dcf139117c41bccd438a3948559, type: 2}
  m_IsPrefabParent: 0
--- !u!224 &2035238645 stripped
RectTransform:
  m_PrefabParentObject: {fileID: 224156151473202830, guid: 04a52dcf139117c41bccd438a3948559,
    type: 2}
  m_PrefabInternal: {fileID: 2035238644}
--- !u!114 &2035238646 stripped
MonoBehaviour:
  m_PrefabParentObject: {fileID: 114259924803253014, guid: 04a52dcf139117c41bccd438a3948559,
    type: 2}
  m_PrefabInternal: {fileID: 2035238644}
  m_Script: {fileID: 11500000, guid: 63b2857a79dce1946a652858f586a704, type: 3}
--- !u!1 &2069787901
GameObject:
  m_ObjectHideFlags: 0
  m_PrefabParentObject: {fileID: 0}
  m_PrefabInternal: {fileID: 0}
  serializedVersion: 5
  m_Component:
  - component: {fileID: 2069787905}
  - component: {fileID: 2069787904}
  - component: {fileID: 2069787903}
  - component: {fileID: 2069787902}
  - component: {fileID: 2069787906}
  m_Layer: 5
  m_Name: Canvas
  m_TagString: Untagged
  m_Icon: {fileID: 0}
  m_NavMeshLayer: 0
  m_StaticEditorFlags: 0
  m_IsActive: 1
--- !u!114 &2069787902
MonoBehaviour:
  m_ObjectHideFlags: 0
  m_PrefabParentObject: {fileID: 0}
  m_PrefabInternal: {fileID: 0}
  m_GameObject: {fileID: 2069787901}
  m_Enabled: 1
  m_EditorHideFlags: 0
  m_Script: {fileID: 1301386320, guid: f5f67c52d1564df4a8936ccd202a3bd8, type: 3}
  m_Name: 
  m_EditorClassIdentifier: 
  m_IgnoreReversedGraphics: 1
  m_BlockingObjects: 0
  m_BlockingMask:
    serializedVersion: 2
    m_Bits: 4294967295
--- !u!114 &2069787903
MonoBehaviour:
  m_ObjectHideFlags: 0
  m_PrefabParentObject: {fileID: 0}
  m_PrefabInternal: {fileID: 0}
  m_GameObject: {fileID: 2069787901}
  m_Enabled: 1
  m_EditorHideFlags: 0
  m_Script: {fileID: 1980459831, guid: f5f67c52d1564df4a8936ccd202a3bd8, type: 3}
  m_Name: 
  m_EditorClassIdentifier: 
  m_UiScaleMode: 1
  m_ReferencePixelsPerUnit: 100
  m_ScaleFactor: 1
  m_ReferenceResolution: {x: 720, y: 1280}
  m_ScreenMatchMode: 0
  m_MatchWidthOrHeight: 0
  m_PhysicalUnit: 3
  m_FallbackScreenDPI: 96
  m_DefaultSpriteDPI: 96
  m_DynamicPixelsPerUnit: 1
--- !u!223 &2069787904
Canvas:
  m_ObjectHideFlags: 0
  m_PrefabParentObject: {fileID: 0}
  m_PrefabInternal: {fileID: 0}
  m_GameObject: {fileID: 2069787901}
  m_Enabled: 1
  serializedVersion: 3
  m_RenderMode: 0
  m_Camera: {fileID: 0}
  m_PlaneDistance: 100
  m_PixelPerfect: 0
  m_ReceivesEvents: 1
  m_OverrideSorting: 0
  m_OverridePixelPerfect: 0
  m_SortingBucketNormalizedSize: 0
  m_AdditionalShaderChannelsFlag: 0
  m_SortingLayerID: 0
  m_SortingOrder: 0
  m_TargetDisplay: 0
--- !u!224 &2069787905
RectTransform:
  m_ObjectHideFlags: 0
  m_PrefabParentObject: {fileID: 0}
  m_PrefabInternal: {fileID: 0}
  m_GameObject: {fileID: 2069787901}
  m_LocalRotation: {x: 0, y: 0, z: 0, w: 1}
  m_LocalPosition: {x: 0, y: 0, z: 0}
  m_LocalScale: {x: 0, y: 0, z: 0}
  m_Children:
  - {fileID: 1640496109}
  - {fileID: 1657510299}
  - {fileID: 1968160516}
  - {fileID: 1663694227}
  - {fileID: 1515010430}
  - {fileID: 2035238645}
  m_Father: {fileID: 0}
  m_RootOrder: 2
  m_LocalEulerAnglesHint: {x: 0, y: 0, z: 0}
  m_AnchorMin: {x: 0, y: 0}
  m_AnchorMax: {x: 0, y: 0}
  m_AnchoredPosition: {x: 0, y: 0}
  m_SizeDelta: {x: 0, y: 0}
  m_Pivot: {x: 0, y: 0}
--- !u!114 &2069787906
MonoBehaviour:
  m_ObjectHideFlags: 0
  m_PrefabParentObject: {fileID: 0}
  m_PrefabInternal: {fileID: 0}
  m_GameObject: {fileID: 2069787901}
  m_Enabled: 1
  m_EditorHideFlags: 0
  m_Script: {fileID: 11500000, guid: 267286ba15800fb4798222f18322521b, type: 3}
  m_Name: 
  m_EditorClassIdentifier: 
  namePanel: {fileID: 116493482}
  positionPanel: {fileID: 1968160519}
  gamePanel: {fileID: 1663694230}
  splashPanel: {fileID: 1130307435}
  scorePanel: {fileID: 2035238646}
  panelList: []
